<svg height='32px' width='32px'
  xmlns="http://www.w3.org/2000/svg"
  xmlns:xlink="http://www.w3.org/1999/xlink" xml:space="preserve" version="1.1" style="shape-rendering:geometricPrecision;text-rendering:geometricPrecision;image-rendering:optimizeQuality;" viewBox="0 0 675 675" x="0px" y="0px" fill-rule="evenodd" clip-rule="evenodd">
  <path class="fil0" d="M22 297l273 0 0 -275c0,-31 81,-27 81,0l0 275 277 0c32,0 26,81 0,81l-277 0 0 275c0,32 -81,28 -81,0l0 -275 -273 0c-6,0 -11,-2 -14,-6 -11,-10 -14,-75 14,-75z"></path>
</svg>