<svg height='32px' width='32px'
  xmlns="http://www.w3.org/2000/svg"
  xmlns:xlink="http://www.w3.org/1999/xlink" xml:space="preserve" version="1.1" style="shape-rendering:geometricPrecision;text-rendering:geometricPrecision;image-rendering:optimizeQuality;" viewBox="0 0 847 847" x="0px" y="0px" fill-rule="evenodd" clip-rule="evenodd">
  <path d="M62 777l0 -708c0,-31 25,-56 56,-56l191 0c31,0 57,25 57,56l0 708c0,32 -26,57 -57,57l-191 0c-31,0 -56,-25 -56,-57zm419 0l0 -708c0,-31 25,-56 56,-56l191 0c31,0 57,25 57,56l0 708c0,32 -26,57 -57,57l-191 0c-31,0 -56,-25 -56,-57z"></path>
</svg>